{
	"info": {
		"_postman_id": "ed5ba1aa-4a53-4f7a-8621-fa4be0c85827",
		"name": "Teste_Qred",
		"schema": "https://schema.getpostman.com/json/collection/v2.1.0/collection.json"
	},
	"item": [
		{
			"name": "Create_Classic_Ingredient_List",
			"request": {
				"method": "POST",
				"header": [],
				"url": {
					"raw": "http://localhost:8080/ingredients?ingredient=Classic ,-banana,-mango,honey",
					"protocol": "http",
					"host": [
						"localhost"
					],
					"port": "8080",
					"path": [
						"ingredients"
					],
					"query": [
						{
							"key": "ingredient",
							"value": "Classic ,-banana,-mango,honey"
						}
					]
				}
			},
			"response": []
		},
		{
			"name": "Create_Classic_Without_Key",
			"request": {
				"method": "POST",
				"header": [],
				"url": {
					"raw": "http://localhost:8080/ingredients?ingredient=xpto",
					"protocol": "http",
					"host": [
						"localhost"
					],
					"port": "8080",
					"path": [
						"ingredients"
					],
					"query": [
						{
							"key": "ingredient",
							"value": "xpto"
						}
					]
				}
			},
			"response": []
		},
		{
			"name": "Create_Classic_Ingredient_With_Space_Over_Main_Menu",
			"request": {
				"method": "POST",
				"header": [],
				"url": {
					"raw": "http://localhost:8080/ingredients?ingredient=   Classic   ,-banana,-mango,honey ",
					"protocol": "http",
					"host": [
						"localhost"
					],
					"port": "8080",
					"path": [
						"ingredients"
					],
					"query": [
						{
							"key": "ingredient",
							"value": "   Classic   ,-banana,-mango,honey "
						}
					]
				}
			},
			"response": []
		},
		{
			"name": "Create_Classic_Ingredient_With_Space_Over_Ingredients",
			"request": {
				"method": "POST",
				"header": [],
				"url": {
					"raw": "http://localhost:8080/ingredients?ingredient=   Classic   ,  -banana , -mango ,  honey ",
					"protocol": "http",
					"host": [
						"localhost"
					],
					"port": "8080",
					"path": [
						"ingredients"
					],
					"query": [
						{
							"key": "ingredient",
							"value": "   Classic   ,  -banana , -mango ,  honey "
						}
					]
				}
			},
			"response": []
		},
		{
			"name": "Create_Freezie_Ingredient_List",
			"request": {
				"method": "POST",
				"header": [],
				"url": {
					"raw": "http://localhost:8080/ingredients?ingredient=Freezie,-black currant,-blueberry",
					"protocol": "http",
					"host": [
						"localhost"
					],
					"port": "8080",
					"path": [
						"ingredients"
					],
					"query": [
						{
							"key": "ingredient",
							"value": "Freezie,-black currant,-blueberry"
						}
					]
				}
			},
			"response": []
		},
		{
			"name": "Create_Greenie_Ingredient_List",
			"request": {
				"method": "POST",
				"header": [],
				"url": {
					"raw": "http://localhost:8080/ingredients?ingredient=Greenie,-avocado,spinach",
					"protocol": "http",
					"host": [
						"localhost"
					],
					"port": "8080",
					"path": [
						"ingredients"
					],
					"query": [
						{
							"key": "ingredient",
							"value": "Greenie,-avocado,spinach"
						}
					]
				}
			},
			"response": []
		},
		{
			"name": "Create_JustDesserts_Ingredient_List",
			"request": {
				"method": "POST",
				"header": [],
				"url": {
					"raw": "http://localhost:8080/ingredients?ingredient=Just Desserts,-ice cream",
					"protocol": "http",
					"host": [
						"localhost"
					],
					"port": "8080",
					"path": [
						"ingredients"
					],
					"query": [
						{
							"key": "ingredient",
							"value": "Just Desserts,-ice cream"
						}
					]
				}
			},
			"response": []
		},
		{
			"name": "Create_Classic_With_Ingredient_From_JustDesserts",
			"request": {
				"method": "POST",
				"header": [],
				"url": {
					"raw": "http://localhost:8080/ingredients?ingredient=Classic,-banana,-mango,honey,chocolate,cherry",
					"protocol": "http",
					"host": [
						"localhost"
					],
					"port": "8080",
					"path": [
						"ingredients"
					],
					"query": [
						{
							"key": "ingredient",
							"value": "Classic,-banana,-mango,honey,chocolate,cherry"
						}
					]
				}
			},
			"response": []
		},
		{
			"name": "Create_Greenie_Ingredient_With_Ingredient_From_Freezie",
			"request": {
				"method": "POST",
				"header": [],
				"url": {
					"raw": "http://localhost:8080/ingredients?ingredient=Greenie,-avocado,spinach,blackberry",
					"protocol": "http",
					"host": [
						"localhost"
					],
					"port": "8080",
					"path": [
						"ingredients"
					],
					"query": [
						{
							"key": "ingredient",
							"value": "Greenie,-avocado,spinach,blackberry"
						}
					]
				}
			},
			"response": []
		},
		{
			"name": "Create_JustDesserts_Ingredient_With_Ingredient_From_Greenie",
			"request": {
				"method": "POST",
				"header": [],
				"url": {
					"raw": "http://localhost:8080/ingredients?ingredient=Just Desserts,-ice cream,avocado",
					"protocol": "http",
					"host": [
						"localhost"
					],
					"port": "8080",
					"path": [
						"ingredients"
					],
					"query": [
						{
							"key": "ingredient",
							"value": "Just Desserts,-ice cream,avocado"
						}
					]
				}
			},
			"response": []
		},
		{
			"name": "Not_Accept_Inexisting_Ingredient",
			"request": {
				"method": "POST",
				"header": [],
				"url": {
					"raw": "http://localhost:8080/ingredients?ingredient=Classic,-banana,-mango,potatoes",
					"protocol": "http",
					"host": [
						"localhost"
					],
					"port": "8080",
					"path": [
						"ingredients"
					],
					"query": [
						{
							"key": "ingredient",
							"value": "Classic,-banana,-mango,potatoes"
						}
					]
				}
			},
			"response": []
		}
	]
}